<?xml version="1.0" encoding="utf-8"?>
<svg viewBox="0 0 500 500" xmlns="http://www.w3.org/2000/svg" xmlns:bx="https://boxy-svg.com">
  <rect y="0.000" width="500.000" height="500.000" style="fill: rgb(245, 104, 104);" rx="54.217" ry="54.217" x="0.000"/>
  <path d="M 217.781 409.639 L 214.611 409.639 L 214.611 386.959 L 220.241 386.959 C 221.608 386.959 222.694 387.206 223.501 387.699 C 224.314 388.192 224.908 388.906 225.281 389.839 C 225.654 390.772 225.841 391.902 225.841 393.229 C 225.841 394.422 225.631 395.459 225.211 396.339 C 224.791 397.219 224.171 397.896 223.351 398.369 C 222.531 398.842 221.504 399.079 220.271 399.079 L 217.781 399.079 L 217.781 409.639 Z M 217.781 389.229 L 217.781 396.819 L 219.231 396.819 C 220.151 396.819 220.871 396.716 221.391 396.509 C 221.911 396.302 222.284 395.942 222.511 395.429 C 222.738 394.916 222.851 394.192 222.851 393.259 C 222.851 392.179 222.771 391.349 222.611 390.769 C 222.451 390.189 222.118 389.786 221.611 389.559 C 221.111 389.339 220.328 389.229 219.261 389.229 L 217.781 389.229 ZM 236.901 409.639 L 228.051 409.639 L 228.051 386.959 L 236.851 386.959 L 236.851 389.309 L 231.221 389.309 L 231.221 396.819 L 235.781 396.819 L 235.781 399.059 L 231.221 399.059 L 231.221 407.369 L 236.901 407.369 L 236.901 409.639 ZM 242.616 409.639 L 239.446 409.639 L 239.446 386.959 L 244.016 386.959 C 245.53 386.959 246.78 387.159 247.766 387.559 C 248.753 387.959 249.486 388.602 249.966 389.489 C 250.44 390.376 250.676 391.539 250.676 392.979 C 250.676 393.859 250.583 394.656 250.396 395.369 C 250.21 396.089 249.913 396.696 249.506 397.189 C 249.093 397.689 248.55 398.049 247.876 398.269 L 251.096 409.639 L 248.046 409.639 L 245.076 398.999 L 242.616 398.999 L 242.616 409.639 Z M 242.616 389.229 L 242.616 396.729 L 243.816 396.729 C 244.716 396.729 245.446 396.619 246.006 396.399 C 246.566 396.172 246.976 395.789 247.236 395.249 C 247.496 394.709 247.626 393.952 247.626 392.979 C 247.626 391.652 247.383 390.696 246.896 390.109 C 246.41 389.522 245.45 389.229 244.016 389.229 L 242.616 389.229 Z" transform="matrix(9.319380760192871, 0, 0, 4.275473117828369, -1919.4671630859375, -1322.9637451171875)" style="fill: rgb(255, 255, 255); white-space: pre;"/>
  <path d="M 291 110.624 L 324.299 206.926 L 425.699 209.003 L 344.88 270.599 L 374.249 368.185 L 291 309.95 L 207.751 368.185 L 237.12 270.599 L 156.301 209.003 L 257.701 206.926 Z" style="" transform="matrix(-0.811154, 0.584833, -0.572427, -0.820098, 640.209636, 212.946728)" bx:shape="star 291 253 141.631 142.376 0.4 5 1@9cf1fc61"/>
</svg>
